"VertexLitGeneric"
{
	"$basetexture" "20doge/miko/_27"
        "$lightwarptexture" "20doge/miko/basewarp"
         "$bumpmap" "20doge/miko/normal"
        "$nocull" 1
	"$nodecal" 1
	"$phong" "1"
	"$phongboost"	".02"
	"$phongalbedotint" "1"
	"$phongfresnelranges"	"[1 .1 .1]"
	"$PhongExponent" "1.0"
	"$halflambert" "1"
	"$alphatest" "1"
}
