"VertexLitGeneric"
{
	"$basetexture" "TDA/haku/underskirt03"
        "$lightwarptexture" "TDA/haku/basewarp"
         "$bumpmap" "TDA/haku/normal"
        "$nocull" 1
	"$nodecal" 1
	"$phong" "1"
	"$phongboost"	".02"
	"$phongalbedotint" "1"
	"$phongfresnelranges"	"[1 .1 .1]"
	"$PhongExponent" "1.0"
	"$halflambert" "1"
$alphatest 1
$alphatestreference 0.7
$translucent 1
$ambientocclusion 0
}