"VertexLitGeneric"
{
	"$basetexture" "millennium_tour_elf/lillia/hair"
	"$lightwarptexture" "millennium_tour_elf/lillia/base_lightwarp"
    "$bumpmap" "millennium_tour_elf/lillia/base_normal"
    "$nocull" "1"
	"$nodecal" "1"
	"$phong" "1"
	"$phongalbedotint" "1"
	"$phongboost" "0.3"
	"$phongexponent" "10"
	"$phongfresnelranges" "[0.5 0.85 5]"
	"$rimlight" "1"
	"$halflambert" "1"
}
