"VertexLitGeneric"
{
	"$basetexture" "blue_oathasd/ougenasd/dp"
	"$lightwarptexture" "blue_oathasd/ougenasd/basewarp"
		"$PhongExponentTexture" "blue_oathasd/ougenasd/phongcls"      
		"$bumpmap" "blue_oathasd/ougenasd/normal"
        "$nocull" 1
	"$nodecal" 1
	"$phong" "1"
	"$phongboost"	".2"
	"$phongalbedotint" "1"
	"$phongfresnelranges"	"[1 .6 .7]"
	"$PhongExponent" "12"
	"$halflambert" "1"
}