"UnlitGeneric"
{
	"$basetexture" "models\captainbigbutt\vocaloid\miku_append\body_misc"
	"$translucent" "1"
	"$model" "1"

	"Proxies"
	{
		"PlayerHeartbeat"
		{
			"resultVar" "$color"
			"min" "0.5"
			"max" "1.35"
			"type" "1"
		}
	}
}