"VertexLitGeneric"
{
	"$basetexture" "mio/ookamimio_os_hairlong"
        	"$lightwarptexture" "mio/basewarp"
        	"$bumpmap" "mio/normal"
        	"$nocull" 1
	"$nodecal" 1
	"$phong" "1"
	"$phongboost" ".02"
	"$phongalbedotint" "1"
	"$phongfresnelranges" "[1 .1 .1]"
	"$PhongExponent" "1.0"
	"$halflambert" "1"
}
