"VertexLitGeneric"
{
	"$basetexture" "nakiriayame/bluearchive/huali/eye_pupil_01"
	        "$lightwarptexture" "nakiriayame/bluearchive/huali/basewarp"
        "$bumpmap" "nakiriayame/bluearchive/huali/eye_pupil_01_n"
        "$nocull" 1
	"$nodecal" 1
	"$phong" "1"
	"$phongboost"	".02"
	"$phongalbedotint" "1"
	"$phongfresnelranges"	"[1 .1 .1]"
	"$PhongExponent" "1.0"
	"$halflambert" "1"
$alphatest 1
$alphatestreference 0.7
$ambientocclusion 0
	"$translucent" 1
}
