"VertexlitGeneric"
{
	"$basetexture" "models/gfl/microuzi/Gloves"
	"$bumpmap" "dev/bump_normal"

	"$nodecal" "1"
 
	"$phong" "1"
	"$phongboost"	".2"
	"$phongexponent" "1"

	"$phongalbedotint" "1"

 
	"$phongfresnelranges"	"[.2 .8 1]"
	
	"$lightwarptexture" "models/gfl/microuzi/headwarpex2"

	"$rimlight"               "1"
	"$rimlightexponent"       "3"
	"$rimlightboost"          "3"
}












