VertexLitGeneric
{
	$basetexture "models\player\steh\deltaflair/SV4"
	$bumpmap "models\player\steh\deltaflair\Normal"
	$lightwarptexture "models\player\steh\deltaflair/lightwarp/basewarp"

	$phong 1
	$phongboost	0.02			
	$phongexponent 12		
	$phongfresnelranges "[.1 .1 .1]"

	$nodecal 	1
	$nocull 1

	$rimlight               1
	$rimlightexponent       3
	$rimlightboost          4
}
