"VertexLitGeneric"
{
	"$basetexture" "models\dizcordum\Taimans\asagi\tex_costume_asagi_7_03"
	
	"$nocull" "1"
	"$halflambert" "1"
	
	"$selfillum" "1"
	"$selfillummask" "models\dizcordum\Taimans\asagi\tex_costume_asagi_7_e"


	"$phong" "1"
	"$phongboost" "12"
	"$phongexponent" "20"
	"$phongfresnelranges" "[0 1 5]"

	"$rimlight" "1"
	"$rimlightexponent" "10"
	"$rimlightboost" "10"
}