"VertexLitGeneric"
{
	"$basetexture" "models\dizcordum\Taimans\asagi\tex_asagi_body_02"
	
	"$nocull" "1"
	"$halflambert" "1"


	"$phong" "1"
	"$phongboost" "12"
	"$phongexponent" "20"
	"$phongfresnelranges" "[0 1 5]"

	"$rimlight" "1"
	"$rimlightexponent" "10"
	"$rimlightboost" "10"
}