"VertexLitGeneric"
{
	"$baseTexture" "models\azimuth\closers\lucy\3rd\FOOT"
	"$lightwarpTexture" "models\azimuth\closers\lucy\3rd\basewarp"

	"$phong" "1"
	"$phongboost"	".1"
	"$phongalbedotint" "1"
	"$phongexponenttexture" "models\azimuth\closers\lucy\3rd\phong_exp"
	"$phongfresnelranges"	"[1 .1 .1]"

	"$rimlight"               "1"
	"$rimlightexponent"       "3"
	"$rimlightboost"          "4"
}