"VertexLitGeneric"
{

	$basetexture "models/dark_souls_3/knight_set/am_m_1950_000"
	$bumpmap "models/dark_souls_3/knight_set/am_m_1950_001"
$nocull 1
    "$phong" "1"
    "$phongboost"    "5"
    "$phongexponent" "5"
    "$phongfresnelranges"    "[0.05 .5 1]"

}